…
``` r
library(tidyverse)
library(uk2us)
```

``` r
user2025 <- readr::read_csv('https://raw.githubusercontent.com/rfordatascience/tidytuesday/main/data/2025/2025-04-29/user2025.csv')
user2025
```

    # A tibble: 128 × 11
          id session date       time  room   title  content video_recording keywords
       <dbl> <chr>   <date>     <chr> <chr>  <chr>  <chr>   <chr>           <chr>   
     1   170 Virtual 2025-08-01 TBD   Online A Rob… In R p… ✅              statist…
     2    79 Virtual 2025-08-01 TBD   Online A fir… Positr… ✅              ide, wo…
     3    30 Virtual 2025-08-01 TBD   Online Analy… This t… ✅              demogra…
     4    31 Virtual 2025-08-01 TBD   Online Autom… Webhoo… ✅              automat…
     5    39 Virtual 2025-08-01 TBD   Online Beyon… In a w… ✅              marketi…
     6   169 Virtual 2025-08-01 TBD   Online CSV t… CSV is… ✅              data pr…
     7    94 Virtual 2025-08-01 TBD   Online Data … Explor… ✅              factor …
     8   163 Virtual 2025-08-01 TBD   Online Don’t… The fa… ✅              testing…
     9    13 Virtual 2025-08-01 TBD   Online Exper… Large … ✅              automat…
    10    51 Virtual 2025-08-01 TBD   Online From … Data S… ✅              quarto,…
    # ℹ 118 more rows
    # ℹ 2 more variables: speakers <chr>, co_authors <chr>
…
