…
## TidyTuesday data for [2025-05-20](https://github.com/rfordatascience/tidytuesday/blob/main/data/2025/2025-05-20/readme.md)

``` r
library(tidyverse)
library(ggtext)
```

``` r
water_quality <- readr::read_csv('https://raw.githubusercontent.com/rfordatascience/tidytuesday/main/data/2025/2025-05-20/water_quality.csv')
water_quality
```

    # A tibble: 123,530 × 10
       region         council       swim_site date       time  enterococci_cfu_100ml
       <chr>          <chr>         <chr>     <date>     <tim>                 <dbl>
     1 Western Sydney Hawkesbury C… Windsor … 2025-04-28 11:00                   620
     2 Sydney Harbour North Sydney… Hayes St… 2025-04-28 11:40                    64
     3 Sydney Harbour Willoughby C… Northbri… 2025-04-28 10:54                   160
     4 Sydney Harbour Northern Bea… Fairligh… 2025-04-28 09:28                    54
     5 Western Sydney Hawkesbury C… Yarramun… 2025-04-28 10:35                   720
     6 Sydney Harbour Northern Bea… Little M… 2025-04-28 09:19                   230
     7 Sydney Harbour City of Cana… Chiswick… 2025-04-28 13:06                   120
     8 Sydney Harbour Inner West C… Dawn Fra… 2025-04-28 08:04                   280
     9 Sydney Harbour Woollahra Mu… Rose Bay… 2025-04-28 08:50                    60
    10 Sydney Harbour Woollahra Mu… Camp Cove 2025-04-28 09:09                   100
    # ℹ 123,520 more rows
    # ℹ 4 more variables: water_temperature_c <dbl>, conductivity_ms_cm <dbl>,
    #   latitude <dbl>, longitude <dbl>
…
